(module LOGO (layer F.Cu)
  (at 0 0)
 (fp_text reference "G***" (at 0 0) (layer F.SilkS) hide
  (effects (font (thickness 0.3)))
  )
  (fp_text value "LOGO" (at 0.75 0) (layer F.SilkS) hide
  (effects (font (thickness 0.3)))
  )
  (fp_poly (pts (xy 31.580666 44.619334) (xy -31.496000 44.619334) (xy -31.496000 4.757913) (xy -6.999513 4.757913) (xy -6.992641 4.881540) (xy -6.937325 4.988928) (xy -6.886007 5.059576) (xy -6.736058 5.179655)
     (xy -6.449428 5.337956) (xy -6.051901 5.524961) (xy -5.569262 5.731152) (xy -5.027294 5.947011) (xy -4.451780 6.163019) (xy -3.868504 6.369659) (xy -3.303251 6.557411) (xy -2.781804 6.716758)
     (xy -2.329946 6.838182) (xy -1.973462 6.912164) (xy -1.820334 6.929598) (xy -1.628046 6.886172) (xy -1.463575 6.792618) (xy -1.298741 6.634840) (xy -1.103083 6.408739) (xy -1.027479 6.310864)
     (xy -0.778809 5.975395) (xy -0.071905 5.938964) (xy 0.505683 5.913467) (xy 0.939815 5.906031) (xy 1.255598 5.918555) (xy 1.478136 5.952939) (xy 1.632536 6.011082) (xy 1.722468 6.074728)
     (xy 1.915916 6.178280) (xy 2.265222 6.288262) (xy 2.757232 6.400675) (xy 2.861662 6.421191) (xy 3.295637 6.500513) (xy 3.598374 6.543638) (xy 3.803545 6.552818) (xy 3.944823 6.530305)
     (xy 4.020353 6.498690) (xy 4.155482 6.389510) (xy 4.361109 6.178511) (xy 4.605973 5.899220) (xy 4.790597 5.672667) (xy 5.003050 5.392739) (xy 5.264406 5.031500) (xy 5.559803 4.611258)
     (xy 5.874378 4.154321) (xy 6.193268 3.682999) (xy 6.501610 3.219599) (xy 6.784542 2.786430) (xy 7.027200 2.405801) (xy 7.214722 2.100021) (xy 7.332244 1.891397) (xy 7.366000 1.807090)
     (xy 7.349454 1.740736) (xy 7.284325 1.661760) (xy 7.147370 1.551761) (xy 6.915348 1.392342) (xy 6.565019 1.165102) (xy 6.513000 1.131810) (xy 6.041001 0.830005) (xy 6.047334 -0.325831)
     (xy 6.053666 -1.481666) (xy 5.657847 -2.301584) (xy 5.043358 -3.421127) (xy 4.342997 -4.417282) (xy 3.871742 -4.963840) (xy 3.344333 -5.527450) (xy 3.297711 -7.018225) (xy 3.273073 -7.650131)
     (xy 3.238647 -8.141429) (xy 3.186886 -8.520829) (xy 3.110244 -8.817041) (xy 3.001175 -9.058776) (xy 2.852131 -9.274743) (xy 2.655567 -9.493653) (xy 2.643876 -9.505683) (xy 2.261981 -9.785847)
     (xy 1.769083 -9.979496) (xy 1.201018 -10.084448) (xy 0.593622 -10.098519) (xy -0.017270 -10.019529) (xy -0.595822 -9.845295) (xy -0.866210 -9.719419) (xy -1.234683 -9.493967) (xy -1.526205 -9.239805)
     (xy -1.749625 -8.934806) (xy -1.913792 -8.556839) (xy -2.027557 -8.083778) (xy -2.099769 -7.493491) (xy -2.139277 -6.763852) (xy -2.145966 -6.519333) (xy -2.166479 -5.891482) (xy -2.196758 -5.415887)
     (xy -2.238379 -5.075670) (xy -2.292916 -4.853950) (xy -2.303937 -4.826000) (xy -2.405822 -4.655501) (xy -2.597969 -4.392936) (xy -2.855448 -4.070353) (xy -3.153329 -3.719802) (xy -3.245978 -3.614945)
     (xy -3.579563 -3.225437) (xy -3.905997 -2.817083) (xy -4.190458 -2.435146) (xy -4.398125 -2.124890) (xy -4.418390 -2.090945) (xy -4.720462 -1.504576) (xy -4.979564 -0.865174) (xy -5.185038 -0.211763)
     (xy -5.326224 0.416630) (xy -5.392462 0.980981) (xy -5.376870 1.418167) (xy -5.356265 1.657491) (xy -5.390913 1.765149) (xy -5.434646 1.779094) (xy -5.527369 1.848076) (xy -5.681243 2.032542)
     (xy -5.874400 2.300388) (xy -6.084973 2.619513) (xy -6.291093 2.957814) (xy -6.470891 3.283188) (xy -6.504979 3.350323) (xy -6.622230 3.615703) (xy -6.756048 3.962369) (xy -6.862096 4.269080)
     (xy -6.956485 4.569831) (xy -6.999513 4.757913) (xy -31.496000 4.757913) (xy -31.496000 -44.534666) (xy 31.580666 -44.534666) (xy 31.580666 44.619334) )(layer F.SilkS) (width  0.010000)
  )
  (fp_poly (pts (xy -4.460756 2.067023) (xy -4.290507 2.131461) (xy -4.081542 2.268119) (xy -3.777044 2.500849) (xy -3.402701 2.807487) (xy -2.984202 3.165871) (xy -2.547234 3.553839) (xy -2.117486 3.949227)
     (xy -1.720645 4.329873) (xy -1.579379 4.470516) (xy -0.745758 5.311000) (xy -0.877805 5.566350) (xy -1.080524 5.886411) (xy -1.332018 6.180459) (xy -1.597670 6.416916) (xy -1.842862 6.564205)
     (xy -2.006629 6.596044) (xy -2.118699 6.576520) (xy -2.347118 6.533024) (xy -2.639569 6.475541) (xy -3.085991 6.367573) (xy -3.635376 6.205677) (xy -4.237009 6.007042) (xy -4.840180 5.788858)
     (xy -5.394174 5.568316) (xy -5.662637 5.450824) (xy -6.287608 5.165394) (xy -6.273075 5.075832) (xy -5.955188 5.075832) (xy -5.942578 5.182623) (xy -5.812333 5.252786) (xy -5.579970 5.335491)
     (xy -5.309838 5.412264) (xy -5.066288 5.464634) (xy -4.922186 5.475534) (xy -4.821675 5.394153) (xy -4.709078 5.207885) (xy -4.674263 5.128369) (xy -4.541820 4.795738) (xy -4.916743 4.472432)
     (xy -5.141811 4.296542) (xy -5.332590 4.179023) (xy -5.422196 4.148896) (xy -5.527162 4.218990) (xy -5.657964 4.396431) (xy -5.789583 4.631520) (xy -5.896997 4.874554) (xy -5.955188 5.075832)
     (xy -6.273075 5.075832) (xy -6.238050 4.860004) (xy -6.175861 4.624537) (xy -6.062104 4.309452) (xy -5.932294 4.007131) (xy -5.807330 3.766757) (xy -5.413270 3.766757) (xy -5.059674 4.127045)
     (xy -4.846799 4.321242) (xy -4.660747 4.452048) (xy -4.565713 4.487334) (xy -4.461512 4.420646) (xy -4.339663 4.212348) (xy -4.193605 3.851931) (xy -4.075829 3.548021) (xy -3.970683 3.310154)
     (xy -3.897053 3.180221) (xy -3.885930 3.169601) (xy -3.820724 3.054537) (xy -3.810000 2.969851) (xy -3.876534 2.836462) (xy -4.040640 2.671503) (xy -4.249076 2.515231) (xy -4.448601 2.407897)
     (xy -4.580227 2.387520) (xy -4.663597 2.472938) (xy -4.800799 2.672855) (xy -4.968030 2.951280) (xy -5.047540 3.094069) (xy -5.413270 3.766757) (xy -5.807330 3.766757) (xy -5.779959 3.714109)
     (xy -5.578792 3.371974) (xy -5.350866 3.013228) (xy -5.118253 2.670373) (xy -4.903027 2.375910) (xy -4.727260 2.162341) (xy -4.613027 2.062168) (xy -4.610775 2.061252) (xy -4.460756 2.067023) )(layer F.SilkS) (width  0.010000)
  )
  (fp_poly (pts (xy 6.011293 1.218408) (xy 6.288309 1.333706) (xy 6.561500 1.484697) (xy 6.785282 1.648311) (xy 6.914071 1.801476) (xy 6.927848 1.845012) (xy 6.891192 1.993668) (xy 6.766946 2.255115)
     (xy 6.569803 2.607195) (xy 6.314457 3.027747) (xy 6.015602 3.494612) (xy 5.687933 3.985632) (xy 5.346144 4.478645) (xy 5.004927 4.951494) (xy 4.678978 5.382019) (xy 4.382989 5.748060)
     (xy 4.207248 5.947834) (xy 4.054720 6.101955) (xy 3.913107 6.198511) (xy 3.744669 6.243116) (xy 3.511662 6.241383) (xy 3.176344 6.198925) (xy 2.861018 6.148060) (xy 2.557870 6.085969)
     (xy 2.316870 6.015278) (xy 2.193791 5.953707) (xy 2.168797 5.882053) (xy 2.164805 5.727377) (xy 2.183475 5.474531) (xy 2.226469 5.108364) (xy 2.295445 4.613725) (xy 2.392064 3.975466)
     (xy 2.453583 3.583040) (xy 2.551026 2.980950) (xy 2.613481 2.612833) (xy 5.421810 2.612833) (xy 5.653071 2.785401) (xy 5.833640 2.901469) (xy 5.962293 2.952017) (xy 5.969000 2.952037)
     (xy 6.065206 2.890091) (xy 6.233731 2.734019) (xy 6.424617 2.532290) (xy 6.639078 2.266134) (xy 6.716329 2.077816) (xy 6.651978 1.940133) (xy 6.441631 1.825884) (xy 6.302549 1.776311)
     (xy 6.093805 1.722386) (xy 5.946016 1.743505) (xy 5.820221 1.864304) (xy 5.677461 2.109418) (xy 5.630295 2.201409) (xy 5.421810 2.612833) (xy 2.613481 2.612833) (xy 2.644010 2.432894)
     (xy 2.728361 1.961424) (xy 2.799911 1.589092) (xy 2.854488 1.338450) (xy 2.887921 1.232047) (xy 2.888503 1.231373) (xy 2.922405 1.260088) (xy 2.928293 1.430554) (xy 2.910687 1.664178)
     (xy 2.889801 1.984838) (xy 2.912229 2.171113) (xy 2.966344 2.245528) (xy 3.096097 2.289016) (xy 3.347345 2.346445) (xy 3.673970 2.407698) (xy 3.802683 2.428985) (xy 4.176602 2.488640)
     (xy 4.522995 2.544004) (xy 4.780242 2.585224) (xy 4.826000 2.592583) (xy 4.983214 2.609007) (xy 5.102423 2.579569) (xy 5.221359 2.477427) (xy 5.377755 2.275737) (xy 5.486192 2.122917)
     (xy 5.692408 1.804019) (xy 5.782538 1.592598) (xy 5.759271 1.475441) (xy 5.625336 1.439334) (xy 5.514979 1.393997) (xy 5.539198 1.281188) (xy 5.628113 1.187176) (xy 5.776033 1.161874)
     (xy 6.011293 1.218408) )(layer F.SilkS) (width  0.010000)
  )
  (fp_poly (pts (xy 2.414308 1.081421) (xy 2.449256 1.282251) (xy 2.443569 1.625338) (xy 2.397058 2.117533) (xy 2.309533 2.765685) (xy 2.286115 2.921000) (xy 2.154340 3.767566) (xy 2.042682 4.452561)
     (xy 1.949922 4.982399) (xy 1.874839 5.363492) (xy 1.816214 5.602254) (xy 1.772825 5.705098) (xy 1.755963 5.707075) (xy 1.711323 5.571783) (xy 1.689508 5.299209) (xy 1.689026 4.919645)
     (xy 1.708380 4.463386) (xy 1.746077 3.960727) (xy 1.800622 3.441961) (xy 1.870519 2.937383) (xy 1.901875 2.749528) (xy 2.004326 2.170629) (xy 2.082998 1.737437) (xy 2.143213 1.428844)
     (xy 2.190293 1.223741) (xy 2.229559 1.101021) (xy 2.266333 1.039577) (xy 2.305936 1.018299) (xy 2.338916 1.016000) (xy 2.414308 1.081421) )(layer F.SilkS) (width  0.010000)
  )
  (fp_poly (pts (xy 1.449512 -1.858047) (xy 1.772093 -1.689320) (xy 2.104388 -1.402405) (xy 2.284709 -1.212959) (xy 2.513526 -0.923002) (xy 2.706041 -0.605985) (xy 2.851422 -0.292373) (xy 2.938839 -0.012630)
     (xy 2.957462 0.202779) (xy 2.896461 0.323390) (xy 2.836333 0.338667) (xy 2.735421 0.263084) (xy 2.709333 0.087646) (xy 2.690364 -0.076889) (xy 2.618828 -0.195011) (xy 2.472780 -0.272530)
     (xy 2.230276 -0.315256) (xy 1.869373 -0.329000) (xy 1.368127 -0.319572) (xy 1.194717 -0.313384) (xy 0.461390 -0.278296) (xy -0.204767 -0.232386) (xy -0.784748 -0.177863) (xy -1.259544 -0.116930)
     (xy -1.610147 -0.051795) (xy -1.817552 0.015335) (xy -1.854515 0.040557) (xy -1.911761 0.156080) (xy -1.954162 0.384804) (xy -1.984131 0.745834) (xy -2.002935 1.216237) (xy -2.017120 1.624507)
     (xy -2.021876 1.942378) (xy -1.998834 2.179953) (xy -1.929631 2.347337) (xy -1.795901 2.454633) (xy -1.579277 2.511944) (xy -1.261394 2.529373) (xy -0.823887 2.517024) (xy -0.248390 2.485001)
     (xy 0.250735 2.456047) (xy 0.717113 2.431605) (xy 1.120396 2.413496) (xy 1.432021 2.402758) (xy 1.623422 2.400429) (xy 1.670658 2.404436) (xy 1.669740 2.494760) (xy 1.638539 2.696610)
     (xy 1.609202 2.845145) (xy 1.565250 3.111478) (xy 1.519154 3.486530) (xy 1.477861 3.909931) (xy 1.459279 4.147737) (xy 1.429621 4.544250) (xy 1.400423 4.805915) (xy 1.361348 4.966874)
     (xy 1.302059 5.061266) (xy 1.212219 5.123232) (xy 1.155394 5.151395) (xy 0.847315 5.248419) (xy 0.467853 5.298933) (xy 0.086858 5.299619) (xy -0.225818 5.247160) (xy -0.296334 5.220342)
     (xy -0.476748 5.107885) (xy -0.730706 4.913466) (xy -1.011015 4.673850) (xy -1.086856 4.604538) (xy -1.623378 4.106334) (xy -1.493355 3.858404) (xy -1.415957 3.669616) (xy -1.403684 3.546081)
     (xy -1.406108 3.541264) (xy -1.370426 3.461829) (xy -1.228254 3.371529) (xy -1.078664 3.273948) (xy -1.028169 3.126981) (xy -1.032821 2.974219) (xy -0.846667 2.974219) (xy -0.774193 3.175963)
     (xy -0.601964 3.335084) (xy -0.430408 3.386667) (xy -0.262327 3.327412) (xy -0.130749 3.220947) (xy 0.083949 3.220947) (xy 0.142875 3.331986) (xy 0.265457 3.366285) (xy 0.365171 3.282957)
     (xy 0.381000 3.211437) (xy 0.375399 3.202322) (xy 0.558445 3.202322) (xy 0.641211 3.305997) (xy 0.747378 3.347043) (xy 0.771593 3.338405) (xy 0.835174 3.224230) (xy 0.840994 3.177856)
     (xy 1.055528 3.177856) (xy 1.064262 3.226927) (xy 1.189230 3.297836) (xy 1.343321 3.265582) (xy 1.402850 3.207867) (xy 1.403946 3.096782) (xy 1.302814 3.028111) (xy 1.166403 3.036971)
     (xy 1.125605 3.062437) (xy 1.055528 3.177856) (xy 0.840994 3.177856) (xy 0.846666 3.132667) (xy 0.914763 2.945764) (xy 1.105369 2.863099) (xy 1.248833 2.866172) (xy 1.406372 2.841356)
     (xy 1.439333 2.761804) (xy 1.399169 2.682050) (xy 1.255460 2.649062) (xy 1.037166 2.650066) (xy 0.791198 2.670514) (xy 0.669873 2.719323) (xy 0.628594 2.819260) (xy 0.625264 2.860334)
     (xy 0.596526 3.034887) (xy 0.562499 3.106390) (xy 0.558445 3.202322) (xy 0.375399 3.202322) (xy 0.310620 3.096905) (xy 0.232833 3.064118) (xy 0.113977 3.100451) (xy 0.083949 3.220947)
     (xy -0.130749 3.220947) (xy -0.128964 3.219503) (xy -0.030573 3.088050) (xy -0.038199 2.973434) (xy -0.117793 2.838503) (xy -0.132613 2.825083) (xy 0.108208 2.825083) (xy 0.125337 2.875977)
     (xy 0.249055 2.946355) (xy 0.402001 2.913703) (xy 0.486858 2.815211) (xy 0.456973 2.705576) (xy 0.333949 2.645384) (xy 0.192616 2.662633) (xy 0.154086 2.690714) (xy 0.108208 2.825083)
     (xy -0.132613 2.825083) (xy -0.297719 2.675577) (xy -0.509545 2.629541) (xy -0.702661 2.690970) (xy -0.826457 2.850441) (xy -0.846667 2.974219) (xy -1.032821 2.974219) (xy -1.032980 2.969002)
     (xy -1.069059 2.762284) (xy -1.160444 2.669098) (xy -1.304913 2.638883) (xy -1.555362 2.652272) (xy -1.739034 2.711136) (xy -1.907557 2.765055) (xy -2.077549 2.709773) (xy -2.149616 2.665363)
     (xy -2.298459 2.539433) (xy -2.393560 2.373232) (xy -2.442005 2.134102) (xy -2.450881 1.789387) (xy -2.431254 1.367505) (xy -2.317411 0.523797) (xy -2.090644 -0.193920) (xy -1.749911 -0.786759)
     (xy -1.294173 -1.255834) (xy -0.722390 -1.602259) (xy -0.033522 -1.827146) (xy 0.642871 -1.923427) (xy 1.088990 -1.929209) (xy 1.449512 -1.858047) )(layer F.SilkS) (width  0.010000)
  )
  (fp_poly (pts (xy -4.993647 1.963816) (xy -4.991031 2.031104) (xy -5.070499 2.175960) (xy -5.242402 2.425145) (xy -5.265093 2.456857) (xy -5.649585 3.011511) (xy -5.940039 3.476724) (xy -6.156473 3.888218)
     (xy -6.318904 4.281712) (xy -6.367364 4.423834) (xy -6.488501 4.756932) (xy -6.588549 4.950844) (xy -6.661395 4.997028) (xy -6.700639 4.889500) (xy -6.705479 4.675526) (xy -6.663726 4.441735)
     (xy -6.564269 4.152388) (xy -6.395996 3.771747) (xy -6.275099 3.520745) (xy -5.991169 2.985056) (xy -5.713692 2.543038) (xy -5.455663 2.211629) (xy -5.230080 2.007770) (xy -5.067995 1.947334)
     (xy -4.993647 1.963816) )(layer F.SilkS) (width  0.010000)
  )
  (fp_poly (pts (xy 5.413976 1.668954) (xy 5.372668 1.843090) (xy 5.242427 2.085507) (xy 5.092253 2.280477) (xy 4.923242 2.359894) (xy 4.769705 2.370667) (xy 4.582332 2.352127) (xy 4.500505 2.306422)
     (xy 4.501444 2.295396) (xy 4.582617 2.195597) (xy 4.750537 2.039889) (xy 4.958230 1.866649) (xy 5.158720 1.714255) (xy 5.305034 1.621085) (xy 5.342010 1.608667) (xy 5.413976 1.668954) )(layer F.SilkS) (width  0.010000)
  )
  (fp_poly (pts (xy 3.305201 1.928872) (xy 3.332617 1.989667) (xy 3.334377 2.098688) (xy 3.299342 2.116667) (xy 3.226572 2.048050) (xy 3.217333 1.989667) (xy 3.235447 1.876704) (xy 3.250608 1.862667)
     (xy 3.305201 1.928872) )(layer F.SilkS) (width  0.010000)
  )
  (fp_poly (pts (xy 0.391544 0.828845) (xy 0.423537 0.932198) (xy 0.511736 1.090026) (xy 0.701226 1.187222) (xy 1.014219 1.230672) (xy 1.386423 1.230760) (xy 1.656263 1.233042) (xy 1.850296 1.256513)
     (xy 1.914186 1.284864) (xy 1.919973 1.343828) (xy 1.838342 1.388132) (xy 1.646685 1.422579) (xy 1.322394 1.451973) (xy 1.043612 1.469837) (xy 0.694087 1.485514) (xy 0.477553 1.479224)
     (xy 0.358542 1.446183) (xy 0.301586 1.381605) (xy 0.296250 1.369025) (xy 0.245359 1.295161) (xy 0.178597 1.353824) (xy 0.117767 1.460500) (xy -0.008108 1.639350) (xy -0.112100 1.686169)
     (xy -0.168386 1.593414) (xy -0.172027 1.545167) (xy -0.183001 1.443329) (xy -0.235541 1.478895) (xy -0.287194 1.545167) (xy -0.449934 1.681223) (xy -0.600728 1.654568) (xy -0.622815 1.634963)
     (xy -0.733368 1.602339) (xy -0.957972 1.578987) (xy -1.166093 1.571463) (xy -1.436129 1.555028) (xy -1.629873 1.517887) (xy -1.693334 1.481667) (xy -1.642574 1.431823) (xy -1.473892 1.387317)
     (xy -1.238700 1.353662) (xy -0.988408 1.336367) (xy -0.774430 1.340944) (xy -0.652398 1.370078) (xy -0.520895 1.367539) (xy -0.407254 1.297782) (xy -0.243310 1.211562) (xy -0.135204 1.212803)
     (xy -0.024452 1.186822) (xy 0.073051 1.006866) (xy 0.087630 0.964687) (xy 0.190388 0.759103) (xy 0.298016 0.713211) (xy 0.391544 0.828845) )(layer F.SilkS) (width  0.010000)
  )
  (fp_poly (pts (xy -3.048000 1.566334) (xy -3.090334 1.608667) (xy -3.132667 1.566334) (xy -3.090334 1.524000) (xy -3.048000 1.566334) )(layer F.SilkS) (width  0.010000)
  )
  (fp_poly (pts (xy -2.794000 1.481667) (xy -2.836334 1.524000) (xy -2.878667 1.481667) (xy -2.836334 1.439334) (xy -2.794000 1.481667) )(layer F.SilkS) (width  0.010000)
  )
  (fp_poly (pts (xy -0.228413 0.415055) (xy -0.174895 0.556494) (xy -0.261713 0.696775) (xy -0.462039 0.807734) (xy -0.643971 0.851304) (xy -0.913631 0.909606) (xy -1.141326 0.990759) (xy -1.164167 1.002450)
     (xy -1.304751 1.063217) (xy -1.351885 1.019556) (xy -1.354667 0.972797) (xy -1.282619 0.782262) (xy -1.098497 0.601278) (xy -0.850332 0.453632) (xy -0.586155 0.363110) (xy -0.353997 0.353498)
     (xy -0.228413 0.415055) )(layer F.SilkS) (width  0.010000)
  )
  (fp_poly (pts (xy 2.833913 0.625987) (xy 2.857539 0.698500) (xy 2.751794 0.806334) (xy 2.594555 0.831578) (xy 2.514704 0.793149) (xy 2.457082 0.674152) (xy 2.553164 0.604457) (xy 2.674055 0.592667)
     (xy 2.833913 0.625987) )(layer F.SilkS) (width  0.010000)
  )
  (fp_poly (pts (xy -2.540000 0.042334) (xy -2.582334 0.084667) (xy -2.624667 0.042334) (xy -2.582334 0.000000) (xy -2.540000 0.042334) )(layer F.SilkS) (width  0.010000)
  )
  (fp_poly (pts (xy 3.556000 -0.042333) (xy 3.513666 0.000000) (xy 3.471333 -0.042333) (xy 3.513666 -0.084666) (xy 3.556000 -0.042333) )(layer F.SilkS) (width  0.010000)
  )
  (fp_poly (pts (xy 3.386666 -0.127000) (xy 3.344333 -0.084666) (xy 3.302000 -0.127000) (xy 3.344333 -0.169333) (xy 3.386666 -0.127000) )(layer F.SilkS) (width  0.010000)
  )
  (fp_poly (pts (xy -2.370667 -0.381000) (xy -2.413000 -0.338666) (xy -2.455334 -0.381000) (xy -2.413000 -0.423333) (xy -2.370667 -0.381000) )(layer F.SilkS) (width  0.010000)
  )
  (fp_poly (pts (xy 3.386666 -0.381000) (xy 3.344333 -0.338666) (xy 3.302000 -0.381000) (xy 3.344333 -0.423333) (xy 3.386666 -0.381000) )(layer F.SilkS) (width  0.010000)
  )
  (fp_poly (pts (xy -2.032000 -0.973666) (xy -2.074334 -0.931333) (xy -2.116667 -0.973666) (xy -2.074334 -1.016000) (xy -2.032000 -0.973666) )(layer F.SilkS) (width  0.010000)
  )
  (fp_poly (pts (xy 1.439333 -2.243666) (xy 1.397000 -2.201333) (xy 1.354666 -2.243666) (xy 1.397000 -2.286000) (xy 1.439333 -2.243666) )(layer F.SilkS) (width  0.010000)
  )
  (fp_poly (pts (xy 1.270000 -2.328333) (xy 1.227666 -2.286000) (xy 1.185333 -2.328333) (xy 1.227666 -2.370666) (xy 1.270000 -2.328333) )(layer F.SilkS) (width  0.010000)
  )
  (fp_poly (pts (xy 1.185333 -2.667000) (xy 1.143000 -2.624666) (xy 1.100666 -2.667000) (xy 1.143000 -2.709333) (xy 1.185333 -2.667000) )(layer F.SilkS) (width  0.010000)
  )
  (fp_poly (pts (xy 1.016000 -4.021666) (xy 0.973666 -3.979333) (xy 0.931333 -4.021666) (xy 0.973666 -4.064000) (xy 1.016000 -4.021666) )(layer F.SilkS) (width  0.010000)
  )
  (fp_poly (pts (xy -1.265575 -5.032589) (xy -1.226496 -4.993438) (xy -1.127725 -4.911464) (xy -0.923676 -4.784101) (xy -0.692333 -4.656910) (xy -0.410976 -4.503871) (xy -0.171098 -4.361689) (xy -0.048515 -4.278679)
     (xy 0.078972 -4.158704) (xy 0.068874 -4.113111) (xy -0.065292 -4.139848) (xy -0.310009 -4.236867) (xy -0.562003 -4.356540) (xy -0.885153 -4.533758) (xy -1.159325 -4.712483) (xy -1.362433 -4.874020)
     (xy -1.472390 -4.999676) (xy -1.467110 -5.070756) (xy -1.416756 -5.080000) (xy -1.265575 -5.032589) )(layer F.SilkS) (width  0.010000)
  )
  (fp_poly (pts (xy 0.508000 -4.191000) (xy 0.465666 -4.148666) (xy 0.423333 -4.191000) (xy 0.465666 -4.233333) (xy 0.508000 -4.191000) )(layer F.SilkS) (width  0.010000)
  )
  (fp_poly (pts (xy 0.735436 -4.347976) (xy 0.719666 -4.318000) (xy 0.639892 -4.237143) (xy 0.625006 -4.233333) (xy 0.619229 -4.288023) (xy 0.635000 -4.318000) (xy 0.714774 -4.398857) (xy 0.729660 -4.402666)
     (xy 0.735436 -4.347976) )(layer F.SilkS) (width  0.010000)
  )
  (fp_poly (pts (xy 1.945689 -5.279682) (xy 1.947333 -5.262311) (xy 1.883032 -5.151085) (xy 1.718006 -4.984015) (xy 1.494065 -4.796671) (xy 1.253025 -4.624621) (xy 1.078357 -4.523081) (xy 0.959504 -4.471468)
     (xy 0.946911 -4.493538) (xy 1.048514 -4.601132) (xy 1.261735 -4.796665) (xy 1.573972 -5.070302) (xy 1.781709 -5.234998) (xy 1.900447 -5.301282) (xy 1.945689 -5.279682) )(layer F.SilkS) (width  0.010000)
  )
  (fp_poly (pts (xy 0.607924 -6.234027) (xy 0.878228 -6.152614) (xy 1.174102 -6.039856) (xy 1.451338 -5.914512) (xy 1.665730 -5.795341) (xy 1.773071 -5.701106) (xy 1.778000 -5.683687) (xy 1.717131 -5.585137)
     (xy 1.557920 -5.414654) (xy 1.335459 -5.204562) (xy 1.084843 -4.987180) (xy 0.841165 -4.794830) (xy 0.721179 -4.710336) (xy 0.483872 -4.577552) (xy 0.276388 -4.501362) (xy 0.213179 -4.493820)
     (xy 0.060371 -4.536574) (xy -0.189585 -4.643906) (xy -0.487939 -4.794447) (xy -0.550334 -4.828527) (xy -0.919399 -5.044167) (xy -1.146119 -5.210894) (xy -1.243548 -5.347062) (xy -1.224741 -5.471025)
     (xy -1.102753 -5.601138) (xy -1.100924 -5.602641) (xy -0.789434 -5.816808) (xy -0.416179 -6.013441) (xy -0.037711 -6.167694) (xy 0.289414 -6.254719) (xy 0.407395 -6.265333) (xy 0.607924 -6.234027) )(layer F.SilkS) (width  0.010000)
  )
  (fp_poly (pts (xy -1.100667 -6.053666) (xy -1.143000 -6.011333) (xy -1.185334 -6.053666) (xy -1.143000 -6.096000) (xy -1.100667 -6.053666) )(layer F.SilkS) (width  0.010000)
  )
  (fp_poly (pts (xy -0.084667 -6.561666) (xy -0.127000 -6.519333) (xy -0.169334 -6.561666) (xy -0.127000 -6.604000) (xy -0.084667 -6.561666) )(layer F.SilkS) (width  0.010000)
  )
  (fp_poly (pts (xy -1.693334 -6.731000) (xy -1.735667 -6.688666) (xy -1.778000 -6.731000) (xy -1.735667 -6.773333) (xy -1.693334 -6.731000) )(layer F.SilkS) (width  0.010000)
  )
  (fp_poly (pts (xy -1.100667 -7.493000) (xy -1.143000 -7.450666) (xy -1.185334 -7.493000) (xy -1.143000 -7.535333) (xy -1.100667 -7.493000) )(layer F.SilkS) (width  0.010000)
  )
  (fp_poly (pts (xy -5.174611 4.542694) (xy -5.015895 4.652379) (xy -4.885506 4.797480) (xy -4.882044 4.953148) (xy -4.907966 5.030562) (xy -4.975594 5.186866) (xy -5.014405 5.241698) (xy -5.102755 5.215812)
     (xy -5.290680 5.161805) (xy -5.334000 5.149421) (xy -5.535678 5.087094) (xy -5.650957 5.042536) (xy -5.657744 5.037925) (xy -5.649415 4.944336) (xy -5.569387 4.783651) (xy -5.456450 4.617093)
     (xy -5.349395 4.505884) (xy -5.310660 4.490150) (xy -5.174611 4.542694) )(layer F.SilkS) (width  0.010000)
  )
  (fp_poly (pts (xy -4.340734 2.720410) (xy -4.248753 2.782369) (xy -4.055489 2.928149) (xy -4.270584 3.390241) (xy -4.387020 3.663785) (xy -4.465467 3.892843) (xy -4.486507 4.000500) (xy -4.535721 4.127502)
     (xy -4.665015 4.125037) (xy -4.850096 3.996980) (xy -4.915284 3.932085) (xy -5.118752 3.715504) (xy -4.866543 3.248025) (xy -4.690873 2.936014) (xy -4.562062 2.757176) (xy -4.454040 2.691858)
     (xy -4.340734 2.720410) )(layer F.SilkS) (width  0.010000)
  )
  (fp_poly (pts (xy 6.358771 1.984754) (xy 6.404544 2.105326) (xy 6.347846 2.286402) (xy 6.218157 2.460388) (xy 6.019855 2.645449) (xy 5.892311 2.699035) (xy 5.808942 2.628232) (xy 5.785414 2.575722)
     (xy 5.799675 2.414504) (xy 5.906583 2.216117) (xy 6.062345 2.043684) (xy 6.211062 1.962243) (xy 6.358771 1.984754) )(layer F.SilkS) (width  0.010000)
  )
)
