G04 #@! TF.FileFunction,Soldermask,Top*
%FSLAX46Y46*%
G04 Gerber Fmt 4.6, Leading zero omitted, Abs format (unit mm)*
G04 Created by KiCad (PCBNEW 4.0.7-e2-6376~58~ubuntu16.04.1) date Sun Apr  8 10:38:41 2018*
%MOMM*%
%LPD*%
G01*
G04 APERTURE LIST*
%ADD10C,0.100000*%
%ADD11R,2.000000X3.500000*%
%ADD12R,7.000000X7.000000*%
%ADD13C,1.524000*%
%ADD14C,3.500120*%
%ADD15C,1.600000*%
%ADD16C,1.440000*%
%ADD17C,2.200000*%
%ADD18O,2.200000X2.200000*%
%ADD19R,1.600000X1.600000*%
%ADD20O,3.600000X2.100000*%
%ADD21R,3.600000X2.100000*%
%ADD22R,1.500000X0.600000*%
%ADD23R,1.800000X1.800000*%
%ADD24C,1.800000*%
%ADD25O,2.000000X2.000000*%
%ADD26R,2.000000X2.000000*%
%ADD27C,1.400000*%
%ADD28O,1.400000X1.400000*%
%ADD29C,1.520000*%
%ADD30R,1.520000X1.520000*%
%ADD31C,2.000000*%
%ADD32C,1.200000*%
%ADD33O,1.000000X2.000000*%
%ADD34O,3.500000X3.500000*%
%ADD35O,1.800000X1.800000*%
%ADD36R,2.400000X2.400000*%
%ADD37C,2.400000*%
%ADD38R,0.900000X1.200000*%
%ADD39O,3.500120X1.699260*%
%ADD40O,0.900000X1.500000*%
%ADD41R,0.900000X1.500000*%
%ADD42R,1.700000X1.700000*%
%ADD43R,1.550000X0.600000*%
%ADD44O,1.600000X1.600000*%
%ADD45C,5.000000*%
%ADD46C,0.800000*%
%ADD47R,2.500000X2.500000*%
G04 APERTURE END LIST*
D10*
D11*
X153996200Y-76521800D03*
X158576200Y-76521800D03*
D12*
X156296200Y-69121800D03*
D13*
X154036200Y-67121800D03*
X158386200Y-66921800D03*
X158336200Y-70971800D03*
X154236200Y-71021800D03*
X156086200Y-68921800D03*
D14*
X101501260Y-46518920D03*
X171506160Y-46521460D03*
X171506160Y-136521280D03*
X101501260Y-136518740D03*
D15*
X147243800Y-117856000D03*
D16*
X166116000Y-136626600D03*
X163576000Y-139166600D03*
X161036000Y-136626600D03*
D17*
X126441400Y-112508400D03*
D18*
X126441400Y-127748400D03*
D15*
X153009600Y-126873000D03*
X158009600Y-126873000D03*
D19*
X147066000Y-134213600D03*
D15*
X147066000Y-131713600D03*
X144195800Y-138379200D03*
X149195800Y-138379200D03*
D19*
X156718000Y-120370600D03*
D15*
X154218000Y-120370600D03*
D20*
X131057650Y-43046650D03*
D21*
X131057650Y-50666650D03*
X125977650Y-50666650D03*
D20*
X125977650Y-43046650D03*
D22*
X154287200Y-98221800D03*
X154287200Y-96951800D03*
X154287200Y-95681800D03*
X154287200Y-94411800D03*
X154287200Y-93141800D03*
X154287200Y-91871800D03*
X154287200Y-90601800D03*
X148887200Y-90601800D03*
X148887200Y-91871800D03*
X148887200Y-93141800D03*
X148887200Y-94411800D03*
X148887200Y-95681800D03*
X148887200Y-96951800D03*
X148887200Y-98221800D03*
D23*
X156489400Y-82219800D03*
D24*
X159029400Y-82219800D03*
D23*
X156362400Y-106426000D03*
D24*
X156362400Y-108966000D03*
D23*
X185826400Y-88442800D03*
D24*
X185826400Y-85902800D03*
D25*
X181225000Y-96665000D03*
X183765000Y-96665000D03*
X186305000Y-96665000D03*
D26*
X188845000Y-96665000D03*
X181190000Y-138200000D03*
D25*
X183730000Y-138200000D03*
X186270000Y-138200000D03*
X188810000Y-138200000D03*
D27*
X167386000Y-132740400D03*
D28*
X162306000Y-132740400D03*
D27*
X158750000Y-106273600D03*
D28*
X163830000Y-106273600D03*
D27*
X183896000Y-92075000D03*
D28*
X188976000Y-92075000D03*
D27*
X144094200Y-89230200D03*
D28*
X144094200Y-94310200D03*
D27*
X144449800Y-101092000D03*
D28*
X149529800Y-101092000D03*
D27*
X151942800Y-139115800D03*
D28*
X157022800Y-139115800D03*
D27*
X135864600Y-45364400D03*
D28*
X140944600Y-45364400D03*
D27*
X135636000Y-47625000D03*
D28*
X140716000Y-47625000D03*
D27*
X136499600Y-136271000D03*
D28*
X141579600Y-136271000D03*
D27*
X141681200Y-133807200D03*
D28*
X136601200Y-133807200D03*
D29*
X137871200Y-107594400D03*
X135331200Y-107594400D03*
D30*
X140411200Y-107594400D03*
D31*
X177380000Y-102220000D03*
X177380000Y-104760000D03*
X177380000Y-107300000D03*
X177380000Y-109840000D03*
X177380000Y-112380000D03*
X177380000Y-114920000D03*
X177380000Y-117460000D03*
X177380000Y-120000000D03*
X177380000Y-122540000D03*
X177380000Y-125080000D03*
X177380000Y-127620000D03*
X177380000Y-130160000D03*
X177380000Y-132700000D03*
X177380000Y-135240000D03*
X177380000Y-137780000D03*
X192620000Y-102220000D03*
X192620000Y-104760000D03*
X192620000Y-107300000D03*
X192620000Y-109840000D03*
X192620000Y-130160000D03*
X192620000Y-127620000D03*
X192620000Y-125080000D03*
X192620000Y-122540000D03*
X192620000Y-120000000D03*
X192620000Y-117460000D03*
X192620000Y-114920000D03*
X192620000Y-112380000D03*
X192620000Y-132700000D03*
X192620000Y-135240000D03*
X192620000Y-137780000D03*
D32*
X176620000Y-81000000D03*
D33*
X174080000Y-81000000D03*
D10*
G36*
X168400000Y-81600000D02*
X168400000Y-80400000D01*
X169600000Y-80400000D01*
X169600000Y-81600000D01*
X168400000Y-81600000D01*
X168400000Y-81600000D01*
G37*
D33*
X171540000Y-81000000D03*
D34*
X124792600Y-88722200D03*
D23*
X141452600Y-86186000D03*
D35*
X141452600Y-88722200D03*
X141452600Y-91258400D03*
D34*
X124843400Y-99491800D03*
D23*
X141503400Y-96955600D03*
D35*
X141503400Y-99491800D03*
X141503400Y-102028000D03*
D17*
X125516500Y-56235500D03*
D18*
X125516500Y-71475500D03*
D17*
X128516500Y-56235500D03*
D18*
X128516500Y-71475500D03*
D17*
X131516500Y-56235500D03*
D18*
X131516500Y-71475500D03*
D17*
X132441400Y-112508400D03*
D18*
X132441400Y-127748400D03*
D17*
X129441400Y-112508400D03*
D18*
X129441400Y-127748400D03*
D36*
X112928400Y-53822600D03*
D37*
X112928400Y-46322600D03*
D36*
X112928400Y-64770000D03*
D37*
X112928400Y-72270000D03*
D36*
X102514400Y-56083200D03*
D37*
X102514400Y-63583200D03*
D36*
X113538000Y-130708400D03*
D37*
X113538000Y-138208400D03*
D36*
X115900200Y-119913400D03*
D37*
X115900200Y-112413400D03*
D36*
X103479600Y-127584200D03*
D37*
X103479600Y-120084200D03*
D15*
X143764000Y-108127800D03*
X148764000Y-108127800D03*
X144195800Y-127711200D03*
X149195800Y-127711200D03*
X144246600Y-57251600D03*
X149246600Y-57251600D03*
X156083000Y-44551600D03*
X161083000Y-44551600D03*
X177342800Y-64973200D03*
X182342800Y-64973200D03*
X193598800Y-65938400D03*
X193598800Y-60938400D03*
X193827400Y-82346800D03*
X188827400Y-82346800D03*
X167601900Y-52895500D03*
X162601900Y-52895500D03*
X163423600Y-44500800D03*
X168423600Y-44500800D03*
X178358800Y-90170000D03*
X178358800Y-85170000D03*
X167741600Y-90500200D03*
X167741600Y-85500200D03*
X140360400Y-112979200D03*
X135360400Y-112979200D03*
X135991600Y-120091200D03*
X140991600Y-120091200D03*
X135610600Y-62128400D03*
X140610600Y-62128400D03*
X150317200Y-72339200D03*
X150317200Y-67339200D03*
X161594800Y-69011800D03*
X161594800Y-64011800D03*
X140817600Y-52247800D03*
X135817600Y-52247800D03*
X141630400Y-131216400D03*
X136630400Y-131216400D03*
D34*
X118387000Y-88696800D03*
D23*
X101727000Y-91233000D03*
D35*
X101727000Y-88696800D03*
X101727000Y-86160600D03*
D34*
X118539400Y-99593400D03*
D23*
X101879400Y-102129600D03*
D35*
X101879400Y-99593400D03*
X101879400Y-97057200D03*
D38*
X145541000Y-71577200D03*
X142241000Y-71577200D03*
D13*
X149504400Y-50571400D03*
X146964400Y-48031400D03*
X146964400Y-53111400D03*
D39*
X143306800Y-78282800D03*
X143306800Y-75742800D03*
X143306800Y-80822800D03*
D27*
X180492400Y-87731600D03*
D28*
X180492400Y-92811600D03*
D27*
X182422800Y-85648800D03*
D28*
X182422800Y-90728800D03*
D27*
X156946600Y-100203000D03*
D28*
X162026600Y-100203000D03*
D27*
X156591000Y-98069400D03*
D28*
X161671000Y-98069400D03*
D40*
X164858700Y-49466500D03*
X163588700Y-49466500D03*
D41*
X166128700Y-49466500D03*
D27*
X140970000Y-122809000D03*
D28*
X135890000Y-122809000D03*
D27*
X141020800Y-117551200D03*
D28*
X135940800Y-117551200D03*
D27*
X140639800Y-57124600D03*
D28*
X135559800Y-57124600D03*
D27*
X135661400Y-59486800D03*
D28*
X140741400Y-59486800D03*
D27*
X141020800Y-125222000D03*
D28*
X135940800Y-125222000D03*
D27*
X140893800Y-127406400D03*
D28*
X135813800Y-127406400D03*
D27*
X140766800Y-64541400D03*
D28*
X135686800Y-64541400D03*
D27*
X140817600Y-66852800D03*
D28*
X135737600Y-66852800D03*
D27*
X154127200Y-84988400D03*
D28*
X154127200Y-79908400D03*
D27*
X134277100Y-76873100D03*
D28*
X139357100Y-76873100D03*
D27*
X134277100Y-74841100D03*
D28*
X139357100Y-74841100D03*
D27*
X158165800Y-54762400D03*
D28*
X153085800Y-54762400D03*
D27*
X158216600Y-52603400D03*
D28*
X153136600Y-52603400D03*
D27*
X167436800Y-130733800D03*
D28*
X162356800Y-130733800D03*
D27*
X156997400Y-136906000D03*
D28*
X151917400Y-136906000D03*
D27*
X151892000Y-134874000D03*
D28*
X156972000Y-134874000D03*
D27*
X140741400Y-49860200D03*
D28*
X135661400Y-49860200D03*
D42*
X157200600Y-103022400D03*
X160451800Y-103174800D03*
X149479000Y-105079800D03*
X159994600Y-111633000D03*
X180314600Y-79273400D03*
X144856200Y-103962200D03*
X186067700Y-45199300D03*
X179260500Y-45199300D03*
X189344300Y-45199300D03*
X175907700Y-45199300D03*
X182664100Y-45199300D03*
X192570100Y-45199300D03*
X143814800Y-45491400D03*
X189204600Y-130175000D03*
X176682400Y-92710000D03*
D38*
X149683200Y-88417400D03*
X152983200Y-88417400D03*
X157199600Y-124333000D03*
X153899600Y-124333000D03*
D43*
X175928000Y-90043000D03*
X175928000Y-88773000D03*
X175928000Y-87503000D03*
X175928000Y-86233000D03*
X170528000Y-86233000D03*
X170528000Y-87503000D03*
X170528000Y-88773000D03*
X170528000Y-90043000D03*
D15*
X159486600Y-95783400D03*
X159486600Y-90783400D03*
X156819600Y-93167200D03*
X156819600Y-88167200D03*
X146405600Y-96951800D03*
X146405600Y-91951800D03*
D20*
X125863350Y-140214350D03*
D21*
X125863350Y-132594350D03*
X130943350Y-132594350D03*
D20*
X130943350Y-140214350D03*
D27*
X191211200Y-62484000D03*
D28*
X186131200Y-62484000D03*
D27*
X191160400Y-64566800D03*
D28*
X186080400Y-64566800D03*
D27*
X188950600Y-86715600D03*
D28*
X194030600Y-86715600D03*
D27*
X188950600Y-84429600D03*
D28*
X194030600Y-84429600D03*
D37*
X166439600Y-126756800D03*
X166439600Y-121756800D03*
X162439600Y-121756800D03*
X162439600Y-126756800D03*
D15*
X150317200Y-75107800D03*
D44*
X150317200Y-82727800D03*
D45*
X121309738Y-81006714D03*
X105354036Y-107660094D03*
D46*
X156350400Y-130238600D03*
X156350400Y-131838600D03*
X154900400Y-131788600D03*
D43*
X152900400Y-129133600D03*
X152900400Y-130403600D03*
X152900400Y-131673600D03*
X152900400Y-132943600D03*
X158300400Y-132943600D03*
X158300400Y-131673600D03*
X158300400Y-130403600D03*
X158300400Y-129133600D03*
D47*
X155600400Y-131038600D03*
D46*
X154850400Y-130238600D03*
M02*
