(module 7805 (layer F.Cu) (tedit 56B1D863)
  (descr "TO-220, Neutral, Vertical,")
  (tags "TO-220, Neutral, Vertical,")
  (fp_text reference REF** (at 0 -5.08) (layer F.SilkS)
    (effects (font (size 1 1) (thickness 0.15)))
  )
  (fp_text value TO-220_Neutral123_Vertical (at 0 3.81) (layer F.Fab)
    (effects (font (size 1 1) (thickness 0.15)))
  )
  (fp_line (start -1.524 -3.048) (end -1.524 -1.905) (layer F.SilkS) (width 0.15))
  (fp_line (start 1.524 -3.048) (end 1.524 -1.905) (layer F.SilkS) (width 0.15))
  (fp_line (start 5.334 -1.905) (end 5.334 1.778) (layer F.SilkS) (width 0.15))
  (fp_line (start 5.334 1.778) (end -5.334 1.778) (layer F.SilkS) (width 0.15))
  (fp_line (start -5.334 1.778) (end -5.334 -1.905) (layer F.SilkS) (width 0.15))
  (fp_line (start 5.334 -3.048) (end 5.334 -1.905) (layer F.SilkS) (width 0.15))
  (fp_line (start 5.334 -1.905) (end -5.334 -1.905) (layer F.SilkS) (width 0.15))
  (fp_line (start -5.334 -1.905) (end -5.334 -3.048) (layer F.SilkS) (width 0.15))
  (fp_line (start 0 -3.048) (end -5.334 -3.048) (layer F.SilkS) (width 0.15))
  (fp_line (start 0 -3.048) (end 5.334 -3.048) (layer F.SilkS) (width 0.15))
  (pad GND thru_hole oval (at 0 0 90) (size 2.49936 1.50114) (drill 1.00076) (layers *.Cu *.Mask F.SilkS))
  (pad VI thru_hole oval (at -2.54 0 90) (size 2.49936 1.50114) (drill 1.00076) (layers *.Cu *.Mask F.SilkS))
  (pad VO thru_hole oval (at 2.54 0 90) (size 2.49936 1.50114) (drill 1.00076) (layers *.Cu *.Mask F.SilkS))
  (model TO_SOT_Packages_THT.3dshapes/TO-220_Neutral123_Vertical.wrl
    (at (xyz 0 0 0))
    (scale (xyz 0.3937 0.3937 0.3937))
    (rotate (xyz 0 0 0))
  )
)
