(module MURATA_Inductor_Big (layer F.Cu) (tedit 5AC8AFF3)
  (descr "Neosid, Inductor, Sd12k-style1, Festinduktivitaet, Through hole,")
  (tags "Neosid, Inductor, Sd12k-style1, Festinduktivitaet, Through hole,")
  (autoplace_cost90 3)
  (fp_text reference L1 (at -10.030457 -6.884035) (layer F.SilkS)
    (effects (font (size 1 1) (thickness 0.15)))
  )
  (fp_text value "MURATA 14xx" (at 0 11.43) (layer F.Fab)
    (effects (font (size 1 1) (thickness 0.15)))
  )
  (fp_circle (center 0 0) (end 9.144 -5.334) (layer F.SilkS) (width 0.15))
  (pad 2 thru_hole circle (at 15.5194 0.0508) (size 5 5) (drill 1.7) (layers *.Cu *.Mask F.SilkS))
  (pad 1 thru_hole circle (at -15.5448 0) (size 5 5) (drill 1.7) (layers *.Cu *.Mask F.SilkS))
  (pad 2 thru_hole circle (at 12.319 3.2766) (size 4 4) (drill 1.5) (layers *.Cu *.Mask F.SilkS))
  (pad 1 thru_hole circle (at -12.319 -3.2258) (size 4 4) (drill 1.5) (layers *.Cu *.Mask F.SilkS))
  (pad 3 thru_hole circle (at 0 0) (size 4.5 4.5) (drill 4.5) (layers *.Cu *.Mask F.SilkS))
)
